{
  "accessors": [
    {
      "bufferView": 2,
      "componentType": 5126,
      "count": 1636,
      "max": [
        354.72634887695312,
        74.501426696777344,
        19.741910934448242
      ],
      "min": [
        -482.06985473632812,
        -87.959434509277344,
        -19.741903305053711
      ],
      "type": "VEC3"
    },
    {
      "bufferView": 2,
      "byteOffset": 19632,
      "componentType": 5126,
      "count": 1636,
      "max": [
        1,
        1,
        1
      ],
      "min": [
        -1,
        -1,
        -1
      ],
      "type": "VEC3"
    },
    {
      "bufferView": 1,
      "componentType": 5125,
      "count": 1884,
      "max": [
        1635
      ],
      "min": [
        0
      ],
      "type": "SCALAR"
    },
    {
      "bufferView": 2,
      "byteOffset": 39264,
      "componentType": 5126,
      "count": 327,
      "max": [
        -41.271045684814453,
        67.623992919921875,
        9.4433879852294922
      ],
      "min": [
        -52.411720275878906,
        48.737236022949219,
        -9.4433679580688477
      ],
      "type": "VEC3"
    },
    {
      "bufferView": 2,
      "byteOffset": 43188,
      "componentType": 5126,
      "count": 327,
      "max": [
        1,
        0.97651326656341553,
        0.93145710229873657
      ],
      "min": [
        -1,
        -0.97651302814483643,
        -0.93145632743835449
      ],
      "type": "VEC3"
    },
    {
      "bufferView": 1,
      "byteOffset": 7536,
      "componentType": 5125,
      "count": 354,
      "max": [
        326
      ],
      "min": [
        0
      ],
      "type": "SCALAR"
    },
    {
      "bufferView": 2,
      "byteOffset": 47112,
      "componentType": 5126,
      "count": 3980,
      "max": [
        470.22470092773438,
        86.020706176757812,
        17.999322891235352
      ],
      "min": [
        -622.07220458984375,
        -29.547735214233398,
        -18.184684753417969
      ],
      "type": "VEC3"
    },
    {
      "bufferView": 2,
      "byteOffset": 94872,
      "componentType": 5126,
      "count": 3980,
      "max": [
        1,
        1,
        1
      ],
      "min": [
        -1,
        -1,
        -1
      ],
      "type": "VEC3"
    },
    {
      "bufferView": 1,
      "byteOffset": 8952,
      "componentType": 5125,
      "count": 4704,
      "max": [
        3979
      ],
      "min": [
        0
      ],
      "type": "SCALAR"
    },
    {
      "bufferView": 2,
      "byteOffset": 142632,
      "componentType": 5126,
      "count": 336,
      "max": [
        -618.74688720703125,
        19.683303833007812,
        6.7168612480163574
      ],
      "min": [
        -619.59759521484375,
        -27.323680877685547,
        -6.9009556770324707
      ],
      "type": "VEC3"
    },
    {
      "bufferView": 2,
      "byteOffset": 146664,
      "componentType": 5126,
      "count": 336,
      "max": [
        8.8977894847630523e-06,
        0.91736745834350586,
        1
      ],
      "min": [
        -1,
        -0.91737186908721924,
        -1
      ],
      "type": "VEC3"
    },
    {
      "bufferView": 1,
      "byteOffset": 27768,
      "componentType": 5125,
      "count": 384,
      "max": [
        335
      ],
      "min": [
        0
      ],
      "type": "SCALAR"
    },
    {
      "bufferView": 2,
      "byteOffset": 150696,
      "componentType": 5126,
      "count": 926,
      "max": [
        -541.533203125,
        21.797086715698242,
        8.5474300384521484
      ],
      "min": [
        -559.9268798828125,
        -29.437454223632812,
        -8.7315559387207031
      ],
      "type": "VEC3"
    },
    {
      "bufferView": 2,
      "byteOffset": 161808,
      "componentType": 5126,
      "count": 926,
      "max": [
        1,
        0.9147263765335083,
        0.99547648429870605
      ],
      "min": [
        0.075761169195175171,
        -0.91472643613815308,
        -0.99547660350799561
      ],
      "type": "VEC3"
    },
    {
      "bufferView": 1,
      "byteOffset": 29304,
      "componentType": 5125,
      "count": 960,
      "max": [
        925
      ],
      "min": [
        0
      ],
      "type": "SCALAR"
    },
    {
      "bufferView": 2,
      "byteOffset": 172920,
      "componentType": 5126,
      "count": 2935,
      "max": [
        -559.342041015625,
        23.330974578857422,
        9.8758316040039062
      ],
      "min": [
        -619.57012939453125,
        -30.971343994140625,
        -10.059939384460449
      ],
      "type": "VEC3"
    },
    {
      "bufferView": 2,
      "byteOffset": 208140,
      "componentType": 5126,
      "count": 2935,
      "max": [
        1,
        0.91737687587738037,
        1
      ],
      "min": [
        -1,
        -0.91737687587738037,
        -1
      ],
      "type": "VEC3"
    },
    {
      "bufferView": 1,
      "byteOffset": 33144,
      "componentType": 5125,
      "count": 3168,
      "max": [
        2934
      ],
      "min": [
        0
      ],
      "type": "SCALAR"
    },
    {
      "bufferView": 2,
      "byteOffset": 243360,
      "componentType": 5126,
      "count": 137,
      "max": [
        -471.94705200195312,
        21.422554016113281,
        12.67191219329834
      ],
      "min": [
        -489.30142211914062,
        -84.925880432128906,
        -12.671904563903809
      ],
      "type": "VEC3"
    },
    {
      "bufferView": 2,
      "byteOffset": 245004,
      "componentType": 5126,
      "count": 137,
      "max": [
        -0.045906800776720047,
        0.93418794870376587,
        0.99291235208511353
      ],
      "min": [
        -0.99591124057769775,
        -0.99894577264785767,
        -0.99291235208511353
      ],
      "type": "VEC3"
    },
    {
      "bufferView": 1,
      "byteOffset": 45816,
      "componentType": 5125,
      "count": 156,
      "max": [
        136
      ],
      "min": [
        0
      ],
      "type": "SCALAR"
    },
    {
      "bufferView": 2,
      "byteOffset": 246648,
      "componentType": 5126,
      "count": 148,
      "max": [
        -39.93157958984375,
        59.092750549316406,
        12.815467834472656
      ],
      "min": [
        -148.51296997070312,
        12.606405258178711,
        -20.99793815612793
      ],
      "type": "VEC3"
    },
    {
      "bufferView": 2,
      "byteOffset": 248424,
      "componentType": 5126,
      "count": 148,
      "max": [
        1,
        1,
        1
      ],
      "min": [
        -1,
        -1,
        -1
      ],
      "type": "VEC3"
    },
    {
      "bufferView": 1,
      "byteOffset": 46440,
      "componentType": 5125,
      "count": 228,
      "max": [
        147
      ],
      "min": [
        0
      ],
      "type": "SCALAR"
    },
    {
      "bufferView": 2,
      "byteOffset": 250200,
      "componentType": 5126,
      "count": 329,
      "max": [
        -49.045528411865234,
        68.385971069335938,
        17.19696044921875
      ],
      "min": [
        -134.08746337890625,
        46.311958312988281,
        -16.971857070922852
      ],
      "type": "VEC3"
    },
    {
      "bufferView": 2,
      "byteOffset": 254148,
      "componentType": 5126,
      "count": 329,
      "max": [
        1,
        0.98430144786834717,
        0.94090360403060913
      ],
      "min": [
        -1,
        -0.98081254959106445,
        -0.94090354442596436
      ],
      "type": "VEC3"
    },
    {
      "bufferView": 1,
      "byteOffset": 47352,
      "componentType": 5125,
      "count": 342,
      "max": [
        328
      ],
      "min": [
        0
      ],
      "type": "SCALAR"
    },
    {
      "bufferView": 2,
      "byteOffset": 258096,
      "componentType": 5126,
      "count": 1051,
      "max": [
        89.479248046875,
        81.994071960449219,
        44.674514770507812
      ],
      "min": [
        -185.79562377929688,
        47.653694152832031,
        -21.584068298339844
      ],
      "type": "VEC3"
    },
    {
      "bufferView": 2,
      "byteOffset": 270708,
      "componentType": 5126,
      "count": 1051,
      "max": [
        1,
        1,
        1
      ],
      "min": [
        -1,
        -1,
        -1
      ],
      "type": "VEC3"
    },
    {
      "bufferView": 1,
      "byteOffset": 48720,
      "componentType": 5125,
      "count": 1245,
      "max": [
        1050
      ],
      "min": [
        0
      ],
      "type": "SCALAR"
    },
    {
      "bufferView": 2,
      "byteOffset": 283320,
      "componentType": 5126,
      "count": 800,
      "max": [
        469.78536987304688,
        86.490333557128906,
        11.087611198425293
      ],
      "min": [
        -182.60835266113281,
        62.228199005126953,
        -11.087592124938965
      ],
      "type": "VEC3"
    },
    {
      "bufferView": 2,
      "byteOffset": 292920,
      "componentType": 5126,
      "count": 800,
      "max": [
        1,
        1,
        1
      ],
      "min": [
        -1,
        -1,
        -1
      ],
      "type": "VEC3"
    },
    {
      "bufferView": 1,
      "byteOffset": 53700,
      "componentType": 5125,
      "count": 936,
      "max": [
        799
      ],
      "min": [
        0
      ],
      "type": "SCALAR"
    },
    {
      "bufferView": 2,
      "byteOffset": 302520,
      "componentType": 5126,
      "count": 736,
      "max": [
        -76.336112976074219,
        48.508277893066406,
        7.1920747756958008
      ],
      "min": [
        -196.78880310058594,
        -18.442811965942383,
        -7.271942138671875
      ],
      "type": "VEC3"
    },
    {
      "bufferView": 2,
      "byteOffset": 311352,
      "componentType": 5126,
      "count": 736,
      "max": [
        0.99984604120254517,
        0.99948710203170776,
        1
      ],
      "min": [
        -0.99786537885665894,
        -0.99948722124099731,
        -1
      ],
      "type": "VEC3"
    },
    {
      "bufferView": 1,
      "byteOffset": 57444,
      "componentType": 5125,
      "count": 756,
      "max": [
        735
      ],
      "min": [
        0
      ],
      "type": "SCALAR"
    },
    {
      "bufferView": 2,
      "byteOffset": 320184,
      "componentType": 5126,
      "count": 503,
      "max": [
        492.20333862304688,
        68.475189208984375,
        8.138524055480957
      ],
      "min": [
        -46.0938720703125,
        31.642929077148438,
        -8.1385221481323242
      ],
      "type": "VEC3"
    },
    {
      "bufferView": 2,
      "byteOffset": 326220,
      "componentType": 5126,
      "count": 503,
      "max": [
        1,
        1,
        1
      ],
      "min": [
        -1,
        -1,
        -1
      ],
      "type": "VEC3"
    },
    {
      "bufferView": 1,
      "byteOffset": 60468,
      "componentType": 5125,
      "count": 528,
      "max": [
        502
      ],
      "min": [
        0
      ],
      "type": "SCALAR"
    },
    {
      "bufferView": 4,
      "componentType": 5126,
      "count": 16,
      "max": [
        1,
        0.0099999997764825821,
        1.3457006620143375e-09,
        0,
        1.0339757630807467e-31,
        1,
        2.6160628457816827e-16,
        0,
        0,
        4.5348675925538373e-09,
        1,
        0,
        0.57328826189041138,
        6.1563892364501953,
        0.55064648389816284,
        1
      ],
      "min": [
        1.9470718370939721e-09,
        0,
        -0.0099999997764825821,
        0,
        -0.0099999997764825821,
        -0.0099999997764825821,
        -0.0099999997764825821,
        0,
        -0.0099999997764825821,
        -1.3435882406653832e-09,
        -5.4885589406694635e-09,
        0,
        0,
        -0.29401120543479919,
        -6.2135944366455078,
        1
      ],
      "type": "MAT4"
    },
    {
      "bufferView": 0,
      "componentType": 5123,
      "count": 1636,
      "max": [
        1,
        1,
        1,
        1
      ],
      "min": [
        1,
        1,
        1,
        1
      ],
      "type": "VEC4"
    },
    {
      "bufferView": 3,
      "componentType": 5126,
      "count": 1636,
      "max": [
        1,
        0,
        0,
        0
      ],
      "min": [
        1,
        0,
        0,
        0
      ],
      "type": "VEC4"
    },
    {
      "bufferView": 0,
      "byteOffset": 13088,
      "componentType": 5123,
      "count": 327,
      "max": [
        2,
        2,
        2,
        2
      ],
      "min": [
        2,
        2,
        2,
        2
      ],
      "type": "VEC4"
    },
    {
      "bufferView": 3,
      "byteOffset": 26176,
      "componentType": 5126,
      "count": 327,
      "max": [
        1,
        0,
        0,
        0
      ],
      "min": [
        1,
        0,
        0,
        0
      ],
      "type": "VEC4"
    },
    {
      "bufferView": 0,
      "byteOffset": 15704,
      "componentType": 5123,
      "count": 3980,
      "max": [
        10,
        10,
        10,
        10
      ],
      "min": [
        1,
        10,
        10,
        10
      ],
      "type": "VEC4"
    },
    {
      "bufferView": 3,
      "byteOffset": 31408,
      "componentType": 5126,
      "count": 3980,
      "max": [
        1,
        0,
        0,
        0
      ],
      "min": [
        1,
        0,
        0,
        0
      ],
      "type": "VEC4"
    },
    {
      "bufferView": 0,
      "byteOffset": 47544,
      "componentType": 5123,
      "count": 336,
      "max": [
        8,
        8,
        8,
        8
      ],
      "min": [
        6,
        8,
        8,
        8
      ],
      "type": "VEC4"
    },
    {
      "bufferView": 3,
      "byteOffset": 95088,
      "componentType": 5126,
      "count": 336,
      "max": [
        1,
        0,
        0,
        0
      ],
      "min": [
        1,
        0,
        0,
        0
      ],
      "type": "VEC4"
    },
    {
      "bufferView": 0,
      "byteOffset": 50232,
      "componentType": 5123,
      "count": 926,
      "max": [
        8,
        8,
        8,
        8
      ],
      "min": [
        6,
        8,
        8,
        8
      ],
      "type": "VEC4"
    },
    {
      "bufferView": 3,
      "byteOffset": 100464,
      "componentType": 5126,
      "count": 926,
      "max": [
        1,
        0,
        0,
        0
      ],
      "min": [
        1,
        0,
        0,
        0
      ],
      "type": "VEC4"
    },
    {
      "bufferView": 0,
      "byteOffset": 57640,
      "componentType": 5123,
      "count": 2935,
      "max": [
        8,
        8,
        8,
        8
      ],
      "min": [
        6,
        8,
        8,
        8
      ],
      "type": "VEC4"
    },
    {
      "bufferView": 3,
      "byteOffset": 115280,
      "componentType": 5126,
      "count": 2935,
      "max": [
        1,
        0,
        0,
        0
      ],
      "min": [
        1,
        0,
        0,
        0
      ],
      "type": "VEC4"
    },
    {
      "bufferView": 0,
      "byteOffset": 81120,
      "componentType": 5123,
      "count": 137,
      "max": [
        1,
        1,
        1,
        1
      ],
      "min": [
        1,
        1,
        1,
        1
      ],
      "type": "VEC4"
    },
    {
      "bufferView": 3,
      "byteOffset": 162240,
      "componentType": 5126,
      "count": 137,
      "max": [
        1,
        0,
        0,
        0
      ],
      "min": [
        1,
        0,
        0,
        0
      ],
      "type": "VEC4"
    },
    {
      "bufferView": 0,
      "byteOffset": 82216,
      "componentType": 5123,
      "count": 148,
      "max": [
        1,
        1,
        1,
        1
      ],
      "min": [
        1,
        1,
        1,
        1
      ],
      "type": "VEC4"
    },
    {
      "bufferView": 3,
      "byteOffset": 164432,
      "componentType": 5126,
      "count": 148,
      "max": [
        1,
        0,
        0,
        0
      ],
      "min": [
        1,
        0,
        0,
        0
      ],
      "type": "VEC4"
    },
    {
      "bufferView": 0,
      "byteOffset": 83400,
      "componentType": 5123,
      "count": 329,
      "max": [
        2,
        2,
        2,
        2
      ],
      "min": [
        2,
        2,
        2,
        2
      ],
      "type": "VEC4"
    },
    {
      "bufferView": 3,
      "byteOffset": 166800,
      "componentType": 5126,
      "count": 329,
      "max": [
        1,
        0,
        0,
        0
      ],
      "min": [
        1,
        0,
        0,
        0
      ],
      "type": "VEC4"
    },
    {
      "bufferView": 0,
      "byteOffset": 86032,
      "componentType": 5123,
      "count": 1051,
      "max": [
        4,
        4,
        4,
        4
      ],
      "min": [
        1,
        4,
        4,
        4
      ],
      "type": "VEC4"
    },
    {
      "bufferView": 3,
      "byteOffset": 172064,
      "componentType": 5126,
      "count": 1051,
      "max": [
        1,
        0,
        0,
        0
      ],
      "min": [
        1,
        0,
        0,
        0
      ],
      "type": "VEC4"
    },
    {
      "bufferView": 0,
      "byteOffset": 94440,
      "componentType": 5123,
      "count": 800,
      "max": [
        1,
        1,
        1,
        1
      ],
      "min": [
        1,
        1,
        1,
        1
      ],
      "type": "VEC4"
    },
    {
      "bufferView": 3,
      "byteOffset": 188880,
      "componentType": 5126,
      "count": 800,
      "max": [
        1,
        0,
        0,
        0
      ],
      "min": [
        1,
        0,
        0,
        0
      ],
      "type": "VEC4"
    },
    {
      "bufferView": 0,
      "byteOffset": 100840,
      "componentType": 5123,
      "count": 736,
      "max": [
        14,
        14,
        14,
        14
      ],
      "min": [
        1,
        14,
        14,
        14
      ],
      "type": "VEC4"
    },
    {
      "bufferView": 3,
      "byteOffset": 201680,
      "componentType": 5126,
      "count": 736,
      "max": [
        1,
        0,
        0,
        0
      ],
      "min": [
        1,
        0,
        0,
        0
      ],
      "type": "VEC4"
    },
    {
      "bufferView": 0,
      "byteOffset": 106728,
      "componentType": 5123,
      "count": 503,
      "max": [
        1,
        1,
        1,
        1
      ],
      "min": [
        1,
        1,
        1,
        1
      ],
      "type": "VEC4"
    },
    {
      "bufferView": 3,
      "byteOffset": 213456,
      "componentType": 5126,
      "count": 503,
      "max": [
        1,
        0,
        0,
        0
      ],
      "min": [
        1,
        0,
        0,
        0
      ],
      "type": "VEC4"
    }
  ],
  "asset": {
    "extras": {
      "author": "TastyTony (https://sketchfab.com/TastyTony)",
      "license": "CC-BY-4.0 (http://creativecommons.org/licenses/by/4.0/)",
      "source": "https://sketchfab.com/3d-models/low-poly-m1-garand-30724a9a60bd4e1da53f40f4b06ea07e",
      "title": "Low-Poly M1 Garand"
    },
    "generator": "Sketchfab-9.31.0",
    "version": "2.0"
  },
  "bufferViews": [
    {
      "buffer": 0,
      "byteLength": 110752,
      "byteOffset": 0,
      "byteStride": 8,
      "name": "shortBufferViews",
      "target": 34962
    },
    {
      "buffer": 0,
      "byteLength": 62580,
      "byteOffset": 110752,
      "name": "floatBufferViews",
      "target": 34963
    },
    {
      "buffer": 0,
      "byteLength": 332256,
      "byteOffset": 173332,
      "byteStride": 12,
      "name": "floatBufferViews",
      "target": 34962
    },
    {
      "buffer": 0,
      "byteLength": 221504,
      "byteOffset": 505588,
      "byteStride": 16,
      "name": "floatBufferViews",
      "target": 34962
    },
    {
      "buffer": 0,
      "byteLength": 1024,
      "byteOffset": 727092,
      "byteStride": 64,
      "name": "floatBufferViews"
    }
  ],
  "buffers": [
    {
      "byteLength": 728116,
      "uri": "scene.bin"
    }
  ],
  "materials": [
    {
      "doubleSided": true,
      "emissiveFactor": [
        0,
        0,
        0
      ],
      "name": "Material",
      "pbrMetallicRoughness": {
        "baseColorFactor": [
          0.0925066477,
          0.063929913399999996,
          0.053897464399999997,
          1
        ],
        "metallicFactor": 0,
        "roughnessFactor": 1
      }
    },
    {
      "doubleSided": true,
      "emissiveFactor": [
        0,
        0,
        0
      ],
      "name": "Material.007",
      "pbrMetallicRoughness": {
        "baseColorFactor": [
          0.12332317072000001,
          0.12332317072000001,
          0.12332317072000001,
          1
        ],
        "metallicFactor": 0,
        "roughnessFactor": 1
      }
    },
    {
      "doubleSided": true,
      "emissiveFactor": [
        0,
        0,
        0
      ],
      "name": "Material.004",
      "pbrMetallicRoughness": {
        "baseColorFactor": [
          0.073559050060122103,
          0.071373250711331229,
          0.071373250711331229,
          1
        ],
        "metallicFactor": 0,
        "roughnessFactor": 1
      }
    },
    {
      "doubleSided": true,
      "emissiveFactor": [
        0,
        0,
        0
      ],
      "name": "Material.003",
      "pbrMetallicRoughness": {
        "baseColorFactor": [
          0.80000000000000004,
          0.80000000000000004,
          0.80000000000000004,
          1
        ],
        "metallicFactor": 0,
        "roughnessFactor": 0.82111456179999998
      }
    },
    {
      "doubleSided": true,
      "emissiveFactor": [
        0,
        0,
        0
      ],
      "name": "Material.001",
      "pbrMetallicRoughness": {
        "baseColorFactor": [
          0.80000000000000004,
          0.80000000000000004,
          0.80000000000000004,
          1
        ],
        "metallicFactor": 0,
        "roughnessFactor": 0.82111456179999998
      }
    },
    {
      "doubleSided": true,
      "emissiveFactor": [
        0,
        0,
        0
      ],
      "name": "Material.002",
      "pbrMetallicRoughness": {
        "baseColorFactor": [
          0.80000000000000004,
          0.80000000000000004,
          0.80000000000000004,
          1
        ],
        "metallicFactor": 0,
        "roughnessFactor": 0.82111456179999998
      }
    },
    {
      "doubleSided": true,
      "emissiveFactor": [
        0,
        0,
        0
      ],
      "name": "Material.011",
      "pbrMetallicRoughness": {
        "baseColorFactor": [
          0.030640243920000001,
          0.030640243920000001,
          0.030640243920000001,
          1
        ],
        "metallicFactor": 0,
        "roughnessFactor": 1
      }
    },
    {
      "doubleSided": true,
      "emissiveFactor": [
        0,
        0,
        0
      ],
      "name": "Material.012",
      "pbrMetallicRoughness": {
        "baseColorFactor": [
          0.079420731680000009,
          0.079420731680000009,
          0.079420731680000009,
          1
        ],
        "metallicFactor": 0,
        "roughnessFactor": 1
      }
    },
    {
      "doubleSided": true,
      "emissiveFactor": [
        0,
        0,
        0
      ],
      "name": "Material.008",
      "pbrMetallicRoughness": {
        "baseColorFactor": [
          0.053573780600000002,
          0.049007531100000001,
          0.049007531100000001,
          1
        ],
        "metallicFactor": 0,
        "roughnessFactor": 1
      }
    },
    {
      "doubleSided": true,
      "emissiveFactor": [
        0,
        0,
        0
      ],
      "name": "Material.006",
      "pbrMetallicRoughness": {
        "baseColorFactor": [
          0.061435884041415888,
          0.057792264295731519,
          0.057792264295731519,
          1
        ],
        "metallicFactor": 0,
        "roughnessFactor": 1
      }
    },
    {
      "doubleSided": true,
      "emissiveFactor": [
        0,
        0,
        0
      ],
      "name": "Material.010",
      "pbrMetallicRoughness": {
        "baseColorFactor": [
          0.059908536560000003,
          0.059908536560000003,
          0.059908536560000003,
          1
        ],
        "metallicFactor": 0,
        "roughnessFactor": 1
      }
    },
    {
      "doubleSided": true,
      "emissiveFactor": [
        0,
        0,
        0
      ],
      "name": "Material.005",
      "pbrMetallicRoughness": {
        "baseColorFactor": [
          0.089176829280000008,
          0.089176829280000008,
          0.089176829280000008,
          1
        ],
        "metallicFactor": 0,
        "roughnessFactor": 1
      }
    },
    {
      "doubleSided": true,
      "emissiveFactor": [
        0,
        0,
        0
      ],
      "name": "Material.009",
      "pbrMetallicRoughness": {
        "baseColorFactor": [
          0.083540245305174649,
          0.083540245305174649,
          0.083540245305174649,
          1
        ],
        "metallicFactor": 0,
        "roughnessFactor": 1
      }
    }
  ],
  "meshes": [
    {
      "name": "Cube.001_Material_0",
      "primitives": [
        {
          "attributes": {
            "JOINTS_0": 40,
            "NORMAL": 1,
            "POSITION": 0,
            "WEIGHTS_0": 41
          },
          "indices": 2,
          "material": 0,
          "mode": 4
        }
      ]
    },
    {
      "name": "Cube.001_Material.007_0",
      "primitives": [
        {
          "attributes": {
            "JOINTS_0": 42,
            "NORMAL": 4,
            "POSITION": 3,
            "WEIGHTS_0": 43
          },
          "indices": 5,
          "material": 1,
          "mode": 4
        }
      ]
    },
    {
      "name": "Cube.001_Material.004_0",
      "primitives": [
        {
          "attributes": {
            "JOINTS_0": 44,
            "NORMAL": 7,
            "POSITION": 6,
            "WEIGHTS_0": 45
          },
          "indices": 8,
          "material": 2,
          "mode": 4
        }
      ]
    },
    {
      "name": "Cube.001_Material.003_0",
      "primitives": [
        {
          "attributes": {
            "JOINTS_0": 46,
            "NORMAL": 10,
            "POSITION": 9,
            "WEIGHTS_0": 47
          },
          "indices": 11,
          "material": 3,
          "mode": 4
        }
      ]
    },
    {
      "name": "Cube.001_Material.001_0",
      "primitives": [
        {
          "attributes": {
            "JOINTS_0": 48,
            "NORMAL": 13,
            "POSITION": 12,
            "WEIGHTS_0": 49
          },
          "indices": 14,
          "material": 4,
          "mode": 4
        }
      ]
    },
    {
      "name": "Cube.001_Material.002_0",
      "primitives": [
        {
          "attributes": {
            "JOINTS_0": 50,
            "NORMAL": 16,
            "POSITION": 15,
            "WEIGHTS_0": 51
          },
          "indices": 17,
          "material": 5,
          "mode": 4
        }
      ]
    },
    {
      "name": "Cube.001_Material.011_0",
      "primitives": [
        {
          "attributes": {
            "JOINTS_0": 52,
            "NORMAL": 19,
            "POSITION": 18,
            "WEIGHTS_0": 53
          },
          "indices": 20,
          "material": 6,
          "mode": 4
        }
      ]
    },
    {
      "name": "Cube.001_Material.012_0",
      "primitives": [
        {
          "attributes": {
            "JOINTS_0": 54,
            "NORMAL": 22,
            "POSITION": 21,
            "WEIGHTS_0": 55
          },
          "indices": 23,
          "material": 7,
          "mode": 4
        }
      ]
    },
    {
      "name": "Cube.001_Material.008_0",
      "primitives": [
        {
          "attributes": {
            "JOINTS_0": 56,
            "NORMAL": 25,
            "POSITION": 24,
            "WEIGHTS_0": 57
          },
          "indices": 26,
          "material": 8,
          "mode": 4
        }
      ]
    },
    {
      "name": "Cube.001_Material.006_0",
      "primitives": [
        {
          "attributes": {
            "JOINTS_0": 58,
            "NORMAL": 28,
            "POSITION": 27,
            "WEIGHTS_0": 59
          },
          "indices": 29,
          "material": 9,
          "mode": 4
        }
      ]
    },
    {
      "name": "Cube.001_Material.010_0",
      "primitives": [
        {
          "attributes": {
            "JOINTS_0": 60,
            "NORMAL": 31,
            "POSITION": 30,
            "WEIGHTS_0": 61
          },
          "indices": 32,
          "material": 10,
          "mode": 4
        }
      ]
    },
    {
      "name": "Cube.001_Material.005_0",
      "primitives": [
        {
          "attributes": {
            "JOINTS_0": 62,
            "NORMAL": 34,
            "POSITION": 33,
            "WEIGHTS_0": 63
          },
          "indices": 35,
          "material": 11,
          "mode": 4
        }
      ]
    },
    {
      "name": "Cube.001_Material.009_0",
      "primitives": [
        {
          "attributes": {
            "JOINTS_0": 64,
            "NORMAL": 37,
            "POSITION": 36,
            "WEIGHTS_0": 65
          },
          "indices": 38,
          "material": 12,
          "mode": 4
        }
      ]
    }
  ],
  "nodes": [
    {
      "children": [
        1
      ],
      "name": "RootNode (gltf orientation matrix)",
      "rotation": [
        -0.70710678118654746,
        -0,
        -0,
        0.70710678118654757
      ]
    },
    {
      "children": [
        2
      ],
      "name": "RootNode (model correction matrix)"
    },
    {
      "children": [
        3
      ],
      "matrix": [
        1,
        0,
        0,
        0,
        0,
        0,
        1,
        0,
        0,
        -1,
        0,
        0,
        0,
        0,
        0,
        1
      ],
      "name": "e80e97dd953441c9901bd6745ef606b5.fbx"
    },
    {
      "children": [
        4,
        36,
        39
      ],
      "name": "RootNode"
    },
    {
      "children": [
        5
      ],
      "matrix": [
        7.5497899709731087e-06,
        -99.999999999999673,
        2.9802311840576579e-06,
        0,
        -2.8212996699972237e-05,
        -2.9802333045836349e-06,
        -99.999999999995964,
        0,
        99.999999999995723,
        7.5497891216524948e-06,
        -2.8212996916465727e-05,
        0,
        -19.696737289428711,
        32.87957763671875,
        6.5632357291178778e-06,
        1
      ],
      "name": "Armature"
    },
    {
      "children": [
        6,
        23,
        24,
        25,
        26,
        27,
        28,
        29,
        30,
        31,
        32,
        33,
        34,
        35,
        22
      ],
      "name": ""
    },
    {
      "children": [
        7
      ],
      "name": "_rootJoint"
    },
    {
      "children": [
        8,
        10,
        12,
        14,
        16,
        18,
        20
      ],
      "name": "body_00",
      "rotation": [
        0.7071068286895752,
        1.1281869781330238e-23,
        -4.2630106427015896e-24,
        0.70710670948028564
      ],
      "translation": [
        0.18088692426681519,
        -4.1663561489713175e-08,
        0.49097850918769836
      ]
    },
    {
      "children": [
        9
      ],
      "name": "bolt_01",
      "rotation": [
        1.0824064977654757e-09,
        6.9636669763895043e-08,
        0.017057845368981361,
        0.99985450506210327
      ],
      "translation": [
        -0.3765023946762085,
        -1.7358508110046387,
        0.0002634751726873219
      ]
    },
    {
      "name": "bolt_end_08",
      "rotation": [
        -6.6174449004242214e-24,
        6.6174449004242214e-24,
        3.5610606169138888e-19,
        1
      ],
      "translation": [
        0,
        1.0000001192092896,
        0
      ]
    },
    {
      "children": [
        11
      ],
      "name": "charginghandle_02",
      "rotation": [
        4.2146865553149837e-08,
        0.70710659027099609,
        -4.2146840684154085e-08,
        0.70710694789886475
      ],
      "translation": [
        -0.40273761749267578,
        -0.68790543079376221,
        -3.8314837524922041e-08
      ]
    },
    {
      "name": "charginghandle_end_09",
      "rotation": [
        -4.3392272279204228e-24,
        1.0587911840678754e-22,
        1.3234889800848443e-22,
        1
      ],
      "translation": [
        -5.2939559203393771e-23,
        0.99999994039535522,
        0
      ]
    },
    {
      "children": [
        13
      ],
      "name": "bullet_03",
      "rotation": [
        -0.0024762314278632402,
        0.70710229873657227,
        0.002476230263710022,
        0.70710259675979614
      ],
      "scale": [
        1,
        0.99999994039535522,
        0.99999994039535522
      ],
      "translation": [
        -0.34856235980987549,
        -1.5424764156341553,
        -1.7604497770662419e-07
      ]
    },
    {
      "name": "bullet_end_010",
      "rotation": [
        5.3178361076359002e-19,
        -2.6469779601696886e-23,
        1.4076043074142787e-41,
        1
      ],
      "translation": [
        0,
        0.688690185546875,
        0
      ]
    },
    {
      "children": [
        15
      ],
      "name": "bullets_04",
      "rotation": [
        -0.0024762467946857214,
        0.70710229873657227,
        0.0024762456305325031,
        0.70710259675979614
      ],
      "scale": [
        1,
        0.99999994039535522,
        0.99999994039535522
      ],
      "translation": [
        -0.14784091711044312,
        -1.5341475009918213,
        -2.0189446559015778e-07
      ]
    },
    {
      "name": "bullets_end_011",
      "rotation": [
        5.2743868949979039e-19,
        6.9812689492662386e-42,
        1.3234889800848443e-23,
        1
      ],
      "translation": [
        0,
        0.688690185546875,
        0
      ]
    },
    {
      "children": [
        17
      ],
      "name": "clip_05",
      "rotation": [
        0.49824601411819458,
        0.50174784660339355,
        -0.49824580550193787,
        0.50174808502197266
      ],
      "scale": [
        1,
        0.99999994039535522,
        0.99999994039535522
      ],
      "translation": [
        -0.37003591656684875,
        -1.5998332500457764,
        -1.9396088646317367e-07
      ]
    },
    {
      "name": "clip_end_012",
      "rotation": [
        -5.0741812694143975e-19,
        -1.3234889800848443e-23,
        -6.7150222410445234e-42,
        1
      ],
      "translation": [
        -3.3087224502121107e-23,
        0.49376216530799866,
        2.2204460492503131e-16
      ]
    },
    {
      "children": [
        19
      ],
      "name": "follower_06",
      "rotation": [
        0.0020552291534841061,
        0.70710378885269165,
        -0.0020552289206534624,
        0.70710384845733643
      ],
      "scale": [
        1,
        0.99999988079071045,
        0.99999994039535522
      ],
      "translation": [
        -0.25589805841445923,
        -1.8157143592834473,
        -2.0957517676833959e-07
      ]
    },
    {
      "name": "follower_end_013",
      "rotation": [
        -1.3008104018750252e-19,
        -3.4429903268460755e-42,
        2.6469779601696886e-23,
        1
      ],
      "translation": [
        -2.6469779601696886e-23,
        0.70127516984939575,
        0
      ]
    },
    {
      "children": [
        21
      ],
      "name": "safety_07",
      "rotation": [
        6.2524534882868466e-08,
        0.70710659027099609,
        -6.2524499355731677e-08,
        0.70710694789886475
      ],
      "translation": [
        0.19543251395225525,
        -2.1150484085083008,
        -3.5497066619427642e-07
      ]
    },
    {
      "name": "safety_end_014",
      "rotation": [
        -1.4782925197705189e-23,
        5.2939559203393771e-23,
        5.9557004103817993e-23,
        1
      ],
      "translation": [
        0,
        0.33704257011413574,
        0
      ]
    },
    {
      "matrix": [
        18.660408258439155,
        1.5103777657364221e-13,
        2.2921497599276419e-14,
        0,
        1.9871193704868712e-14,
        9.9056496800281162e-16,
        -16.1771535873416,
        0,
        -1.5103777657363948e-13,
        18.660408258438817,
        1.1426204622239966e-15,
        0,
        -216.47851116254066,
        26.157945948758631,
        3.5536940586227469e-06,
        1
      ],
      "name": ""
    },
    {
      "mesh": 0,
      "name": "",
      "skin": 0
    },
    {
      "mesh": 1,
      "name": "",
      "skin": 0
    },
    {
      "mesh": 2,
      "name": "",
      "skin": 0
    },
    {
      "mesh": 3,
      "name": "",
      "skin": 0
    },
    {
      "mesh": 4,
      "name": "",
      "skin": 0
    },
    {
      "mesh": 5,
      "name": "",
      "skin": 0
    },
    {
      "mesh": 6,
      "name": "",
      "skin": 0
    },
    {
      "mesh": 7,
      "name": "",
      "skin": 0
    },
    {
      "mesh": 8,
      "name": "",
      "skin": 0
    },
    {
      "mesh": 9,
      "name": "",
      "skin": 0
    },
    {
      "mesh": 10,
      "name": "",
      "skin": 0
    },
    {
      "mesh": 11,
      "name": "",
      "skin": 0
    },
    {
      "mesh": 12,
      "name": "",
      "skin": 0
    },
    {
      "children": [
        37
      ],
      "matrix": [
        1.5090645214039315,
        82.608293431272827,
        -56.334661679306549,
        0,
        43.043698374149024,
        50.316587430338785,
        74.93651352738766,
        0,
        90.2494542793237,
        -25.379362192556894,
        -34.798354887296632,
        0,
        719.624755859375,
        631.95721435546875,
        817.64862060546875,
        1
      ],
      "name": "Lamp"
    },
    {
      "children": [
        38
      ],
      "matrix": [
        1,
        0,
        0,
        0,
        0,
        2.2204460492503131e-16,
        1,
        0,
        0,
        -1,
        2.2204460492503131e-16,
        0,
        0,
        0,
        0,
        1
      ],
      "name": ""
    },
    {
      "name": ""
    },
    {
      "children": [
        40
      ],
      "matrix": [
        -65.155832803290963,
        -44.527135765708579,
        -61.417030473735487,
        0,
        -32.40134137821245,
        89.539574512336159,
        -30.542088974418615,
        0,
        68.592054721299746,
        -1.0718647115348782e-05,
        -72.767633623962695,
        0,
        748.1131591796875,
        534.36651611328125,
        650.76397705078125,
        1
      ],
      "name": "Camera"
    },
    {
      "name": ""
    }
  ],
  "scene": 0,
  "scenes": [
    {
      "name": "OSG_Scene",
      "nodes": [
        0
      ]
    }
  ],
  "skins": [
    {
      "inverseBindMatrices": 39,
      "joints": [
        6,
        7,
        8,
        9,
        10,
        11,
        12,
        13,
        14,
        15,
        16,
        17,
        18,
        19,
        20,
        21
      ],
      "skeleton": 6
    }
  ]
}

